%YAML 1.1
%TAG !u! tag:unity3d.com,2011:
--- !u!78 &1
TagManager:
  serializedVersion: 2
  tags:
  - Floor
  - Projectile
  - Enemy
  - EntitySpawner
  - Pickup
  - PlayerAmmoIcon
  - AudioMuteButton
  - EntitySpawnCheck
  layers:
  - Default
  - TransparentFX
  - Ignore Raycast
  - 
  - Water
  - UI
  - 
  - 
  - Projectile
  - Barrier
  - Enemy
  - Player
  - Pickup
  - Floor
  - EntitySpawnCheck
  - 
  - 
  - 
  - 
  - 
  - 
  - 
  - 
  - 
  - 
  - 
  - 
  - 
  - 
  - 
  - 
  - 
  m_SortingLayers:
  - name: Default
    uniqueID: 0
    locked: 0
